…
Now you can work with it like a regular data frame, but the computations
will be spread across multiple cores. Once you’ve finished computation,
use `collect()` to bring the data back to the host session:

``` r
flight_dest %>% 
  summarise(delay = mean(dep_delay, na.rm = TRUE), n = n()) %>% 
  collect()
#> # A tibble: 105 × 3
#>    dest  delay     n
#>    <chr> <dbl> <int>
#>  1 ABQ    13.7   254
#>  2 AUS    13.0  2439
#>  3 BQN    12.4   896
#>  4 BTV    13.6  2589
#>  5 BUF    13.4  4681
#>  6 CLE    13.4  4573
#>  7 CMH    12.2  3524
#>  8 DEN    15.2  7266
#>  9 DSM    26.2   569
#> 10 DTW    11.8  9384
#> # ℹ 95 more rows
```
…
