…
```r
flights1 <- partition(flights, flight)
#> Initialising 7 core cluster.
flights2 <- summarise(flights1, dep_delay = mean(dep_delay, na.rm = TRUE))
flights3 <- collect(flights2)
```

The dplyr code looks the same as usual, but behind the scenes things are very different. `flights1` and `flights2` are party dfs. These look like normal data frames, but have an additional attribute: the number of shards. In this example, it tells us that `flights2` is spread across seven nodes, and the size on each node varies from 503 to 609 rows. `partition()` always makes sure a group is kept together on one node.


```r
flights2
#> Source: party_df [3,844 x 2]
#> Shards: 7 [533--579 rows]
#> 
#> # S3: party_df
#>    flight dep_delay
#>     <int>     <dbl>
#> 1       9  16.57237
#> 2      15  10.26431
#> 3      16  -0.25000
#> 4      23  11.26519
#> 5      40  12.51667
#> 6      45   9.14400
#> 7      99  -3.00000
#> 8     103  13.00000
#> 9     109  12.35294
#> 10    112  11.81481
#> # ... with 3,834 more rows
```
…
If you want, you can use `set_default_cluster()` so that `partition()` will use this cluster by default:


```r
set_default_cluster(cluster)
```

Let's partition our restricted flights data across this cluster:


```r
by_dest <- common_dest %>% 
  partition(dest, cluster = cluster)
by_dest
#> Source: party_df [332,942 x 21]
#> Groups: dest
#> Shards: 2 [166,399--166,543 rows]
#> 
#> # S3: party_df
#>     year month   day dep_time sched_dep_time dep_delay arr_time
#>    <int> <int> <int>    <int>          <int>     <dbl>    <int>
#> 1   2013     1     1     1315           1317        -2     1413
#> 2   2013     1     1     1655           1621        34     1804
#> 3   2013     1     1     2056           2004        52     2156
#> 4   2013     1     2     1332           1327         5     1419
#> 5   2013     1     2     1746           1621        85     1835
#> 6   2013     1     2     2148           2004       104     2234
#> 7   2013     1     3     1716           1619        57     1803
#> 8   2013     1     3     2031           2038        -7     2131
#> 9   2013     1     4     1618           1619        -1     1714
#> 10  2013     1     4     2031           2000        31     2131
#> # ... with 332,932 more rows, and 14 more variables: sched_arr_time <int>,
#> #   arr_delay <dbl>, carrier <chr>, flight <int>, tailnum <chr>,
#> #   origin <chr>, dest <chr>, air_time <dbl>, distance <dbl>, hour <dbl>,
#> #   minute <dbl>, time_hour <dttm>, yday <dbl>, PARTITION_ID <dbl>
```
…
