Source: party_df [20 x 1]
Shards: 2 [10--10 rows]

# Description: party_df
      y
  <int>
1     1
2     2
3     3
4     4
5     5
6     6
# … with 14 more rows
