A `party_df` partitioned data frame — party_df • multidplyr
…
An S3 object with class `multidplyr_party_df`.

    Examples

# If a real example, you might spread file names across the clusters
# and read in using data.table::fread()/vroom::vroom()/qs::qread().
cl <- default_cluster()
cluster_send(cl[1], n <- 10)
cluster_send(cl[2], n <- 15)
cluster_send(cl, df <- data.frame(x = runif(n)))

df <- party_df(cl, "df")
df
#> Source: party_df [25 x 1]
#> Shards: 2 [10--15 rows]
#> 
#>        x
#>    <dbl>
#> 1 0.176 
#> 2 0.0722
#> 3 0.0450
#> 4 0.906 
#> 5 0.503 
#> 6 0.616 
#> # … with 19 more rows
…
