…
## dplyr verbs

Once you have a partitioned data frame, you can operate on it with the
usual dplyr verbs. To bring the data back to the interactive process,
use [`collect()`](https://dplyr.tidyverse.org/reference/compute.html):

``` r
flights1 %>% 
  summarise(dep_delay = mean(dep_delay, na.rm = TRUE)) %>% 
  collect()
#> # A tibble: 105 × 2
#>    dest  dep_delay
#>    <chr>     <dbl>
#>  1 ABQ       13.7 
#>  2 ALB       23.6 
#>  3 AUS       13.0 
#>  4 AVL        8.19
#>  5 BDL       17.7 
#>  6 BGR       19.5 
#>  7 BHM       29.7 
#>  8 BNA       16.0 
#>  9 BOS        8.73
#> 10 BZN       11.5 
#> # ℹ 95 more rows
```
…
