An introduction to multidplyr • multidplyr
…
library(multidplyr)
library(dplyr, warn.conflicts = FALSE)
library(nycflights13)

Next, we partition the flights data by destination, compute the average delay per flight, and then collect the results:

flights1 <- flights %>% group_by(dest) %>% partition()
#> Initialising 2 core cluster.
flights2 <- flights1 %>% summarise(dep_delay = mean(dep_delay, na.rm = TRUE))
flights3 <- flights2 %>% collect()

The dplyr code looks the same as usual, but behind the scenes things are very different. flights1 and flights2 are party dfs. These look like normal data frames, but have an additional attribute: the number of shards. In this example, it tells us that flights2 is spread across seven nodes, and the size on each node varies from 12 to 25 rows. partition() always makes sure a group is kept together on one node.

flights2
#> Source: party_df [105 x 2]
#> Shards: 2 [47--58 rows]
#> 
#> # Description: party_df
#>   dest  dep_delay
#>   <chr>     <dbl>
#> 1 ABQ       13.7 
#> 2 ALB       23.6 
#> 3 AUS       13.0 
#> 4 AVL        8.19
#> 5 BDL       17.7 
#> 6 BGR       19.5 
#> # … with 99 more rows
…
